{
 "localinterface": "eth0",
  "localport": 8889,
  "remoteaddr": "127.0.0.1",
  "remoteport": 995,
  "key": "gavpnservice",
  "crypt": "none",
  "mode": "fast3",
  "mtu": 1350,
  "sndwnd": 1024,
  "rcvwnd": 1024,
  "datashard": 10,
  "parityshard": 3,
  "dscp": 0,
  "nocomp": true,
  "acknodelay": false,
  "nodelay": 0,
  "interval": 20,
  "resend": 2,
  "nc": 1,
  "sockbuf": 4194304,
  "keepalive": 10
}
